vertex_program voxel_vert glsl {
	source voxels.vert.glsl
	default_params {
		param_named_auto worldViewProj worldviewproj_matrix
		param_named_auto ambient ambient_light_colour
	}
}

fragment_program voxel_frag glsl {
	source voxels.frag.glsl
}

material mat_voxels {
	technique {
		pass {
			lighting off
			
			fragment_program_ref voxel_frag {
				param_named diffuseMap int 0
			}
			
			texture_unit {
				texture blue.png 2d
			}
		}
	}
}